%YAML 1.1
%TAG !u! tag:unity3d.com,2011:
--- !u!114 &11400000
MonoBehaviour:
  m_ObjectHideFlags: 0
  m_CorrespondingSourceObject: {fileID: 0}
  m_PrefabInstance: {fileID: 0}
  m_PrefabAsset: {fileID: 0}
  m_GameObject: {fileID: 0}
  m_Enabled: 1
  m_EditorHideFlags: 0
  m_Script: {fileID: 11500000, guid: 82d39acf1712fe2498cec68be0476a04, type: 3}
  m_Name: SecondModule
  m_EditorClassIdentifier: 
  moduleName: Side Protection
  price: 85
  damages: 15.3
  range: 160
  fireRate: 3
  bulletSpeed: 18
  reloadTime: 2
  hp: 20
  armor: 8
  weight: 900
